<?xml version="1.0" encoding="UTF-8" standalone="no"?>
<!DOCTYPE svg PUBLIC "-//W3C//DTD SVG 1.1//EN" "http://www.w3.org/Graphics/SVG/1.1/DTD/svg11.dtd">
<svg width="100%" height="100%" viewBox="0 0 48 48" version="1.1" xmlns="http://www.w3.org/2000/svg" xmlns:xlink="http://www.w3.org/1999/xlink" xml:space="preserve" xmlns:serif="http://www.serif.com/" style="fill-rule:evenodd;clip-rule:evenodd;stroke-linejoin:round;stroke-miterlimit:1.41421;">
    <g transform="matrix(1,0,0,1,-405.835,-0.55369)">
        <g id="CFT-proposal-export-48" serif:id="CFT proposal-export-48" transform="matrix(0.75,0,0,0.75,405.835,0.55369)">
            <rect x="0" y="0" width="64" height="64" style="fill:none;"/>
            <g transform="matrix(0.0950714,0,0,0.0950714,14.4604,64.1478)">
                <g transform="matrix(10.5027,0,0,10.5027,-169.854,-615.432)">
                    <g transform="matrix(1.77778,0,0,1.77778,-483.949,-25.3974)">
                        <path d="M291.286,14.752C291.64,14.817 291.892,14.984 291.922,15.47L291.922,43.246C291.876,44.003 290.541,44.319 290.477,43.246L290.477,15.47C290.502,15.054 290.833,14.725 291.286,14.752Z" style="fill:#759c3e;fill-rule:nonzero;"/>
                    </g>
                </g>
                <g transform="matrix(13.493,0,0,13.493,-5615.31,-669.447)">
                    <path d="M426.123,12.898C426.326,13.005 426.395,13.016 426.546,13.197C426.823,13.53 426.848,14.053 426.593,14.413C426.457,14.605 426.389,14.622 426.195,14.744L419.812,17.685L419.812,31.435L426.19,34.329C426.385,34.451 426.453,34.466 426.59,34.658C426.933,35.138 426.736,35.948 426.128,36.176C425.964,36.238 425.786,36.255 425.613,36.226C425.527,36.212 425.447,36.176 425.363,36.15L418.397,32.988C418.322,32.942 418.241,32.905 418.174,32.85C417.969,32.68 417.838,32.429 417.814,32.17C417.806,32.082 417.821,31.995 417.825,31.907L417.812,31.979L417.812,17.045L417.838,16.819C417.915,16.601 418.02,16.393 418.199,16.254C418.259,16.208 418.329,16.176 418.394,16.136L425.358,12.928C425.607,12.85 425.608,12.85 425.868,12.84C425.953,12.859 426.038,12.878 426.123,12.898Z" style="fill:#4b612c;fill-rule:nonzero;"/>
                </g>
                <g transform="matrix(13.493,0,0,13.493,-5615.31,-669.447)">
                    <path d="M434.149,13.04L434.397,13.121L441.292,16.411C441.55,16.573 441.769,16.801 441.836,17.091C441.852,17.164 441.853,17.239 441.861,17.314L441.861,32.063C441.826,32.369 441.712,32.669 441.474,32.853C441.414,32.899 441.344,32.932 441.279,32.971L434.385,36.148C434.166,36.216 434.109,36.257 433.875,36.235C433.283,36.181 432.803,35.502 433.028,34.893C433.089,34.728 433.192,34.583 433.327,34.47C433.394,34.415 433.474,34.377 433.548,34.331L439.861,31.422L439.861,17.945L433.536,14.926C433.343,14.801 433.275,14.783 433.142,14.589C432.847,14.16 432.963,13.499 433.4,13.199C433.594,13.066 433.664,13.074 433.888,13.026C433.975,13.031 434.062,13.035 434.149,13.04Z" style="fill:#4b612c;fill-rule:nonzero;"/>
                </g>
                <g transform="matrix(-15.4245,0,0,15.4245,340.174,-1056.39)">
                    <path d="M9.881,28.249C9.704,28.343 9.643,28.352 9.511,28.511C9.27,28.801 9.247,29.259 9.47,29.575C9.589,29.743 9.648,29.757 9.818,29.864L24.577,36.665L24.577,57.03L24.607,57.256C24.684,57.442 24.688,57.503 24.833,57.649C25.16,57.976 25.742,57.977 26.071,57.649C26.179,57.54 26.257,57.405 26.297,57.256C26.317,57.183 26.317,57.106 26.327,57.03L26.327,36.104C26.296,35.836 26.196,35.574 25.988,35.413C25.936,35.372 25.875,35.344 25.818,35.31L10.55,28.275C10.333,28.208 10.331,28.208 10.104,28.199C10.03,28.216 9.955,28.232 9.881,28.249Z" style="fill:#759c3e;fill-rule:nonzero;"/>
                </g>
                <g transform="matrix(-15.4245,0,0,15.4245,578.472,-625.174)">
                    <path d="M25.457,0.297L25.24,0.367L9.807,7.733C9.582,7.874 9.39,8.071 9.331,8.327C9.317,8.391 9.317,8.458 9.309,8.523L9.309,29.07C9.34,29.337 9.438,29.598 9.648,29.761C9.701,29.802 9.761,29.83 9.818,29.864L25.086,36.899C25.266,36.959 25.453,36.999 25.636,36.96C25.697,36.947 25.754,36.921 25.814,36.901L41.266,29.888C41.436,29.782 41.496,29.768 41.616,29.6C41.921,29.174 41.74,28.47 41.212,28.272C41.068,28.218 40.913,28.203 40.761,28.228C40.686,28.241 40.616,28.272 40.543,28.294L25.455,35.143L11.059,28.51L11.059,9.075L25.994,1.946L26.185,1.822C26.32,1.673 26.373,1.643 26.442,1.448C26.567,1.095 26.431,0.654 26.112,0.436C25.943,0.319 25.882,0.326 25.685,0.285C25.609,0.289 25.533,0.293 25.457,0.297Z" style="fill:#759c3e;fill-rule:nonzero;"/>
                </g>
            </g>
        </g>
    </g>
</svg>
