<?xml version="1.0" encoding="iso-8859-1"?>
<!-- Generator: Adobe Illustrator 19.0.0, SVG Export Plug-In . SVG Version: 6.00 Build 0)  -->
<svg xmlns="http://www.w3.org/2000/svg" xmlns:xlink="http://www.w3.org/1999/xlink" version="1.1" id="Capa_1" x="0px" y="0px" viewBox="0 0 496 496" style="enable-background:new 0 0 496 496;" xml:space="preserve" width="512px" height="512px">
<g>
	<g>
		<g>
			<path d="M480,160.472V56c0-22.056-17.944-40-40-40H335.528C308.296,5.688,278.808,0,248,0c-30.808,0-60.296,5.688-87.528,16H56     c-22.056,0-40,17.944-40,40v104.472C5.688,187.704,0,217.192,0,248s5.688,60.296,16,87.528V440c0,22.056,17.944,40,40,40h104.472     c27.24,10.312,56.728,16,87.528,16s60.296-5.688,87.528-16H440c22.056,0,40-17.944,40-40V335.528     c10.312-27.232,16-56.72,16-87.528S490.312,187.704,480,160.472z M440,32c13.232,0,24,10.768,24,24v70.368     C441.728,86.976,409.024,54.272,369.632,32H440z M32,56c0-13.232,10.768-24,24-24h70.368C86.976,54.272,54.272,86.976,32,126.368     V56z M56,464c-13.232,0-24-10.768-24-24v-70.368c22.272,39.392,54.976,72.096,94.368,94.368H56z M464,440     c0,13.232-10.768,24-24,24h-70.368c39.392-22.272,72.104-54.976,94.368-94.368V440z M248,480C120.072,480,16,375.92,16,248     S120.072,16,248,16s232,104.08,232,232S375.928,480,248,480z" fill="#FFFFFF"/>
			<path d="M291.992,282.536l57.072,25.368C355.2,310.616,361.704,312,368.4,312c26.248,0,47.6-21.352,47.6-47.592V184.24     c0-17.784-14.464-32.24-32.248-32.24c-12.728,0-24.296,7.512-29.464,19.152l-9.032,20.328     c-8.384,18.856-24.608,32.968-44.136,38.912c-3.504-10.528-10.04-19.664-18.584-26.384l25.36-57.072     c2.728-6.128,4.104-12.64,4.104-19.344C312,101.352,290.648,80,264.4,80h-80.16C166.464,80,152,94.464,152,112.24     c0,12.736,7.512,24.296,19.152,29.472l20.328,9.032c18.856,8.376,32.968,24.6,38.92,44.136     c-10.528,3.504-19.664,10.04-26.384,18.592l-57.072-25.368C140.8,185.384,134.296,184,127.6,184     c-26.248,0-47.6,21.352-47.6,47.592v80.168C80,329.544,94.464,344,112.248,344c12.728,0,24.296-7.512,29.464-19.152l9.032-20.328     c8.384-18.856,24.608-32.968,44.136-38.912c3.504,10.528,10.04,19.664,18.584,26.384l-25.36,57.072     c-2.728,6.128-4.104,12.64-4.104,19.344c0,26.24,21.352,47.592,47.6,47.592h80.16c17.776,0,32.24-14.464,32.24-32.24     c0-12.736-7.512-24.296-19.152-29.472l-20.328-9.032c-18.856-8.376-32.968-24.6-38.92-44.136     C276.136,297.616,285.272,291.08,291.992,282.536z M304,248c0-0.616-0.072-1.216-0.096-1.832     c24.768-6.936,45.44-24.488,55.968-48.192l9.04-20.328c2.6-5.856,8.424-9.648,14.84-9.648c8.96,0,16.248,7.288,16.248,16.24     v80.168C400,281.832,385.824,296,368.4,296c-4.448,0-8.768-0.912-12.832-2.728l-55.544-24.688     C302.56,262.208,304,255.272,304,248z M192,248c0,0.616,0.072,1.216,0.096,1.832c-24.768,6.936-45.44,24.488-55.968,48.192     l-9.04,20.328c-2.6,5.856-8.424,9.648-14.84,9.648C103.288,328,96,320.712,96,311.76v-80.168C96,214.168,110.176,200,127.6,200     c4.448,0,8.768,0.912,12.832,2.728l55.544,24.688C193.44,233.792,192,240.728,192,248z M197.976,136.12l-20.328-9.032     c-5.864-2.6-9.648-8.432-9.648-14.848c0-8.952,7.288-16.24,16.248-16.24h80.16c17.424,0,31.6,14.168,31.6,31.592     c0,4.456-0.92,8.768-2.72,12.832L268.6,195.968C262.208,193.44,255.272,192,248,192c-0.616,0-1.216,0.072-1.832,0.096     C239.232,167.328,221.672,146.656,197.976,136.12z M298.024,359.88l20.328,9.032c5.864,2.6,9.648,8.432,9.648,14.848     c0,8.952-7.288,16.24-16.248,16.24H231.6c-17.424,0-31.6-14.168-31.6-31.592c0-4.456,0.92-8.768,2.72-12.832l24.688-55.544     C233.792,302.56,240.728,304,248,304c0.616,0,1.216-0.072,1.832-0.096C256.768,328.672,274.328,349.344,298.024,359.88z M248,288     c-22.056,0-40-17.944-40-40c0-22.056,17.944-40,40-40c22.056,0,40,17.944,40,40C288,270.056,270.056,288,248,288z" fill="#FFFFFF"/>
			<path d="M248,32C128.896,32,32,128.896,32,248s96.896,216,216,216c47.008,0,91.696-14.832,129.24-42.912l-9.584-12.816     C332.904,434.264,291.528,448,248,448c-110.28,0-200-89.72-200-200S137.72,48,248,48s200,89.72,200,200     c0,56.84-24.32,111.192-66.72,149.128l10.664,11.92C437.736,368.088,464,309.392,464,248C464,128.896,367.104,32,248,32z" fill="#FFFFFF"/>
			<rect x="48" y="48" width="16" height="16" fill="#FFFFFF"/>
			<rect x="432" y="48" width="16" height="16" fill="#FFFFFF"/>
			<rect x="48" y="432" width="16" height="16" fill="#FFFFFF"/>
			<rect x="432" y="432" width="16" height="16" fill="#FFFFFF"/>
		</g>
	</g>
</g>
<g>
</g>
<g>
</g>
<g>
</g>
<g>
</g>
<g>
</g>
<g>
</g>
<g>
</g>
<g>
</g>
<g>
</g>
<g>
</g>
<g>
</g>
<g>
</g>
<g>
</g>
<g>
</g>
<g>
</g>
</svg>
