<?xml version="1.0" encoding="iso-8859-1"?>
<!-- Generator: Adobe Illustrator 19.0.0, SVG Export Plug-In . SVG Version: 6.00 Build 0)  -->
<svg xmlns="http://www.w3.org/2000/svg" xmlns:xlink="http://www.w3.org/1999/xlink" version="1.1" id="Capa_1" x="0px" y="0px" viewBox="0 0 496 496" style="enable-background:new 0 0 496 496;" xml:space="preserve" width="512px" height="512px">
<g>
	<g>
		<g>
			<path d="M248,0C111.248,0,0,111.248,0,248s111.248,248,248,248s248-111.248,248-248S384.752,0,248,0z M248,480     C120.08,480,16,375.92,16,248S120.08,16,248,16s232,104.08,232,232S375.92,480,248,480z" fill="#FFFFFF"/>
			<path d="M248,32C128.896,32,32,128.896,32,248s96.896,216,216,216c50.352,0,99.376-17.704,138.032-49.848L375.8,401.856     C340.008,431.608,294.624,448,248,448c-110.28,0-200-89.72-200-200S137.72,48,248,48s200,89.72,200,200     c0,54.976-21.848,106.232-61.536,144.32l11.08,11.544C440.4,362.736,464,307.376,464,248C464,128.896,367.104,32,248,32z" fill="#FFFFFF"/>
			<path d="M96,248c0,83.816,68.184,152,152,152s152-68.184,152-152S331.816,96,248,96S96,164.184,96,248z M129.472,181.528     l12.104,5.672l-15.416,47.44l-13.152-2.528C115.144,213.904,120.864,196.816,129.472,181.528z M191.208,371.416     c-16.352-7.56-30.912-18.24-42.984-31.312l9.064-9.68l40.352,29.32L191.208,371.416z M304.792,371.408l-6.432-11.672     l40.352-29.32l9.064,9.68C335.704,353.176,321.144,363.856,304.792,371.408z M382.992,232.104l-13.152,2.528l-15.416-47.44     l12.104-5.672C375.136,196.816,380.856,213.904,382.992,232.104z M248,112c9.104,0,18,0.936,26.608,2.648L272.936,128h-49.872     l-1.672-13.352C230,112.936,238.896,112,248,112z M205.784,118.792L208.936,144h78.128l3.152-25.208     c27.368,8.968,50.848,26.408,67.512,49.192l-22.88,10.728l24.136,74.296l25.016-4.8c-0.048,29.672-9.744,57.064-25.976,79.424     l-17.288-18.456l-63.192,45.928l12.272,22.256C276.624,381.632,262.592,384,248,384c-14.592,0-28.624-2.368-41.808-6.64     l12.272-22.256l-63.192-45.928l-17.288,18.456c-16.232-22.36-25.928-49.752-25.976-79.424l25.016,4.8l24.136-74.296     l-22.88-10.728C154.936,145.2,178.424,127.752,205.784,118.792z" fill="#FFFFFF"/>
			<path d="M248,320c39.704,0,72-32.296,72-72c0-39.704-32.296-72-72-72c-39.704,0-72,32.296-72,72S208.296,320,248,320z M248,192     c30.872,0,56,25.128,56,56s-25.128,56-56,56s-56-25.128-56-56S217.128,192,248,192z" fill="#FFFFFF"/>
			<path d="M248,288c22.056,0,40-17.944,40-40c0-22.056-17.944-40-40-40c-22.056,0-40,17.944-40,40C208,270.056,225.944,288,248,288     z M248,224c13.232,0,24,10.768,24,24s-10.768,24-24,24s-24-10.768-24-24S234.768,224,248,224z" fill="#FFFFFF"/>
			<rect x="224" y="64" width="16" height="16" fill="#FFFFFF"/>
			<rect x="256" y="64" width="16" height="16" fill="#FFFFFF"/>
			<rect x="192" y="64" width="16" height="16" fill="#FFFFFF"/>
			<rect x="288" y="64" width="16" height="16" fill="#FFFFFF"/>
		</g>
	</g>
</g>
<g>
</g>
<g>
</g>
<g>
</g>
<g>
</g>
<g>
</g>
<g>
</g>
<g>
</g>
<g>
</g>
<g>
</g>
<g>
</g>
<g>
</g>
<g>
</g>
<g>
</g>
<g>
</g>
<g>
</g>
</svg>
